{
  "values": [
    "diamondglass:diamondglass_cyan",
    "diamondglass:diamondglass_black",
    "diamondglass:diamondglass_blue",
    "diamondglass:diamondglass_brown",
    "diamondglass:diamondglass_gray",
    "diamondglass:diamondglass_green",
    "diamondglass:diamondglass_light_blue",
    "diamondglass:diamondglass_light_gray",
    "diamondglass:diamondglass_lime",
    "diamondglass:diamondglass_magenta",
    "diamondglass:diamondglass_orange",
    "diamondglass:diamondglass_pink",
    "diamondglass:diamondglass_purple",
    "diamondglass:diamondglass_red",
    "diamondglass:diamondglass_white",
    "diamondglass:diamondglass_yellow",

    "diamondglass:diamondglassstairs_cyan",
    "diamondglass:diamondglassstairs_black",
    "diamondglass:diamondglassstairs_blue",
    "diamondglass:diamondglassstairs_brown",
    "diamondglass:diamondglassstairs_gray",
    "diamondglass:diamondglassstairs_green",
    "diamondglass:diamondglassstairs_light_blue",
    "diamondglass:diamondglassstairs_light_gray",
    "diamondglass:diamondglassstairs_lime",
    "diamondglass:diamondglassstairs_magenta",
    "diamondglass:diamondglassstairs_orange",
    "diamondglass:diamondglassstairs_pink",
    "diamondglass:diamondglassstairs_purple",
    "diamondglass:diamondglassstairs_red",
    "diamondglass:diamondglassstairs_white",
    "diamondglass:diamondglassstairs_yellow",

    "diamondglass:diamondglasspane_cyan",
    "diamondglass:diamondglasspane_black",
    "diamondglass:diamondglasspane_blue",
    "diamondglass:diamondglasspane_brown",
    "diamondglass:diamondglasspane_gray",
    "diamondglass:diamondglasspane_green",
    "diamondglass:diamondglasspane_light_blue",
    "diamondglass:diamondglasspane_light_gray",
    "diamondglass:diamondglasspane_lime",
    "diamondglass:diamondglasspane_magenta",
    "diamondglass:diamondglasspane_orange",
    "diamondglass:diamondglasspane_pink",
    "diamondglass:diamondglasspane_purple",
    "diamondglass:diamondglasspane_red",
    "diamondglass:diamondglasspane_white",
    "diamondglass:diamondglasspane_yellow",

    "diamondglass:diamondglassslab_cyan",
    "diamondglass:diamondglassslab_black",
    "diamondglass:diamondglassslab_blue",
    "diamondglass:diamondglassslab_brown",
    "diamondglass:diamondglassslab_gray",
    "diamondglass:diamondglassslab_green",
    "diamondglass:diamondglassslab_light_blue",
    "diamondglass:diamondglassslab_light_gray",
    "diamondglass:diamondglassslab_lime",
    "diamondglass:diamondglassslab_magenta",
    "diamondglass:diamondglassslab_orange",
    "diamondglass:diamondglassslab_pink",
    "diamondglass:diamondglassslab_purple",
    "diamondglass:diamondglassslab_red",
    "diamondglass:diamondglassslab_white",
    "diamondglass:diamondglassslab_yellow",

    "diamondglass:rainbowglass",
    "diamondglass:rainbowglasspane",
    "diamondglass:rainbowglassstairs",
    "diamondglass:rainbowglassslab"
  ]
}