{
  "type": "minecraft:block",
  "pools": [
    {
	  "name": "diamondglass:diamondglassslab_purple",
      "rolls": 1,
      "entries": [
        {
          "type": "minecraft:item",
          "name": "diamondglass:diamondglassslab_purple"
        }
      ],
      "conditions": [
        {
          "condition": "minecraft:survives_explosion"
        }
      ]
    }
  ]
}
