{
     "type": "minecraft:crafting_shaped",
     "pattern": [
        "  s",
        " ss",
        "sss"
     ],
     "key": {
        "s": {
            "item": "diamondglass:diamondglass_red"
         }
     },
    "result": {
        "item": "diamondglass:diamondglassstairs_red",
        "count": 6
     }
 }