{
     "type": "minecraft:crafting_shaped",
     "pattern": [
        "s",
        "s"
     ],
     "key": {
        "s": {
            "item": "diamondglass:diamondsandstoneslab"
         }
     },
    "result": {
        "item": "diamondglass:diamondsandstonechiseled"
     }
 }