{
     "type": "minecraft:crafting_shaped",
     "pattern": [
        "ss",
        "ss"
     ],
     "key": {
        "s": {
            "item": "diamondglass:diamondsandstone"
         }
     },
    "result": {
        "item": "diamondglass:diamondsandstonesmooth",
        "count": 4
     }
 }