{
    "parent": "block/outer_stairs",
    "textures": {
        "bottom": "diamondglass:blocks/diamondglass_white",
        "top": "diamondglass:blocks/diamondglass_white",
        "side": "diamondglass:blocks/diamondglass_white"
    }
}
