{
    "parent": "block/slab_top",
    "textures": {
        "bottom": "diamondglass:blocks/diamondglass_blue",
        "top": "diamondglass:blocks/diamondglass_blue",
        "side": "diamondglass:blocks/diamondglass_blue"
    }
}
