{
    "parent": "block/inner_stairs",
    "textures": {
        "bottom": "diamondglass:blocks/diamondglass_cyan",
        "top": "diamondglass:blocks/diamondglass_cyan",
        "side": "diamondglass:blocks/diamondglass_cyan"
    }
}
