{
    "parent": "block/slab",
    "textures": {
        "bottom": "diamondglass:blocks/diamondsandstone_bottom",
        "top": "diamondglass:blocks/diamondsandstone_top",
        "side": "diamondglass:blocks/diamondsandstone"
    }
}
