{
    "parent": "block/outer_stairs",
    "textures": {
        "bottom": "diamondglass:blocks/diamondglass_black",
        "top": "diamondglass:blocks/diamondglass_black",
        "side": "diamondglass:blocks/diamondglass_black"
    }
}
