{
    "parent": "block/slab",
    "textures": {
        "bottom": "diamondglass:blocks/diamondglass_light_blue",
        "top": "diamondglass:blocks/diamondglass_light_blue",
        "side": "diamondglass:blocks/diamondglass_light_blue"
    }
}
