{
    "parent": "block/stairs",
    "textures": {
        "bottom": "diamondglass:blocks/diamondglass_brown",
        "top": "diamondglass:blocks/diamondglass_brown",
        "side": "diamondglass:blocks/diamondglass_brown"
    }
}
