{
     "type": "minecraft:crafting_shaped",
     "pattern": [
        "sss",
        "sds",
        "sss"
     ],
     "key": {
        "s": {
            "item": "diamondglass:diamondglass_cyan"
         },
         "d": {
            "tag": "forge:dyes/black"
         }
     },
    "result": {
        "item": "diamondglass:diamondglass_black",
        "count": 8
     }
 }