{
     "type": "minecraft:crafting_shaped",
     "pattern": [
        "sss"
     ],
     "key": {
        "s": {
            "item": "diamondglass:diamondsandstonechiseled"
         }
     },
    "result": {
        "item": "diamondglass:diamondsandstonechiseledslab",
        "count": 6
     }
 }